…
    ##   week_8 = col_double()
    ## )
    ## Parsed with column specification:
    ## cols(
    ##   week_1 = col_double(),
    ##   week_2 = col_double(),
    ##   week_3 = col_double(),
    ##   week_4 = col_double(),
    ##   week_5 = col_double(),
    ##   week_6 = col_double(),
    ##   week_7 = col_double(),
    ##   week_8 = col_double()
    ## )

    ## # A tibble: 160 x 3
    ##    file_name         week   value
    ##    <chr>             <chr>  <dbl>
    ##  1 ./data/con_01.csv week_1  0.2 
    ##  2 ./data/con_01.csv week_2 -1.31
    ##  3 ./data/con_01.csv week_3  0.66
    ##  4 ./data/con_01.csv week_4  1.96
    ##  5 ./data/con_01.csv week_5  0.23
    ##  6 ./data/con_01.csv week_6  1.09
    ##  7 ./data/con_01.csv week_7  0.05
    ##  8 ./data/con_01.csv week_8  1.94
    ##  9 ./data/con_02.csv week_1  1.13
    ## 10 ./data/con_02.csv week_2 -0.88
    ## # ... with 150 more rows
